registers.vcd
$comment Generated by Amaranth $end
$date 2022-03-27 20:05:58.721027 $end
$timescale 1 ps $end
$scope module bench $end
$scope module top $end
$var wire 1 ! pos_clk $end
$var wire 1 " pos_rst $end
$var wire 32 # data1_rd $end
$var wire 5 $ reg1_rd $end
$var wire 32 % $signal $end
$var wire 32 & $signal$1 $end
$var wire 32 ' $signal$2 $end
$var wire 32 ( $signal$3 $end
$var wire 32 ) $signal$4 $end
$var wire 32 * $signal$5 $end
$var wire 32 + $signal$6 $end
$var wire 32 , $signal$7 $end
$var wire 32 - $signal$8 $end
$var wire 32 . $signal$9 $end
$var wire 32 / $signal$10 $end
$var wire 32 0 $signal$11 $end
$var wire 32 1 $signal$12 $end
$var wire 32 2 $signal$13 $end
$var wire 32 3 $signal$14 $end
$var wire 32 4 $signal$15 $end
$var wire 32 5 $signal$16 $end
$var wire 32 6 $signal$17 $end
$var wire 32 7 $signal$18 $end
$var wire 32 8 $signal$19 $end
$var wire 32 9 $signal$20 $end
$var wire 32 : $signal$21 $end
$var wire 32 ; $signal$22 $end
$var wire 32 < $signal$23 $end
$var wire 32 = $signal$24 $end
$var wire 32 > $signal$25 $end
$var wire 32 ? $signal$26 $end
$var wire 32 @ $signal$27 $end
$var wire 32 A $signal$28 $end
$var wire 32 B $signal$29 $end
$var wire 32 C $signal$30 $end
$var wire 32 D $signal$31 $end
$var wire 32 E data2_rd $end
$var wire 5 F reg2_rd $end
$var wire 1 G wr $end
$var wire 5 H reg_wr $end
$var wire 32 I data_wr $end
$var wire 1 J reset $end
$upscope $end
$upscope $end
$enddefinitions $end
#0
$dumpvars
0!
0"
b0 #
b0 $
b0 %
b0 &
b0 '
b0 (
b0 )
b0 *
b0 +
b0 ,
b0 -
b0 .
b0 /
b0 0
b0 1
b0 2
b0 3
b0 4
b0 5
b0 6
b0 7
b0 8
b0 9
b0 :
b0 ;
b0 <
b0 =
b0 >
b0 ?
b0 @
b0 A
b0 B
b0 C
b0 D
b0 E
b0 F
1G
b0 H
b0 I
0J
$end
#10000
1!
#20000
0!
#30000
1!
#40000
0!
#50000
1!
#60000
0!
#70000
1!
#80000
b1 I
b1 &
0!
b1 H
#90000
1!
#100000
0!
#110000
1!
#120000
b10 I
0!
b10 '
b10 H
#130000
1!
#140000
0!
#150000
1!
#160000
b11 I
b11 (
0!
b11 H
#170000
1!
#180000
0!
#190000
1!
#200000
b100 I
b100 )
0!
b100 H
#210000
1!
#220000
0!
#230000
1!
#240000
b101 I
b101 *
0!
b101 H
#250000
1!
#260000
0!
#270000
1!
#280000
b110 I
b110 +
0!
b110 H
#290000
1!
#300000
0!
#310000
1!
#320000
b111 I
b111 ,
0!
b111 H
#330000
1!
#340000
0!
#350000
1!
#360000
b1000 I
0!
b1000 -
b1000 H
#370000
1!
#380000
0!
#390000
1!
#400000
b1001 I
b1001 .
0!
b1001 H
#410000
1!
#420000
0!
#430000
1!
#440000
b1010 I
b1010 /
0!
b1010 H
#450000
1!
#460000
0!
#470000
1!
#480000
b1011 I
b1011 0
0!
b1011 H
#490000
1!
#500000
0!
#510000
1!
#520000
b1100 I
b1100 1
0!
b1100 H
#530000
1!
#540000
0!
#550000
1!
#560000
b1101 I
b1101 2
0!
b1101 H
#570000
1!
#580000
0!
#590000
1!
#600000
b1110 I
b1110 3
0!
b1110 H
#610000
1!
#620000
0!
#630000
1!
#640000
b1111 I
0!
b1111 4
b1111 H
#650000
1!
#660000
0!
#670000
1!
#680000
b10000 I
0!
b10000 5
b10000 H
#690000
1!
#700000
0!
#710000
1!
#720000
b10001 I
0!
b10001 6
b10001 H
#730000
1!
#740000
0!
#750000
1!
#760000
b10010 I
b10010 7
0!
b10010 H
#770000
1!
#780000
0!
#790000
1!
#800000
b10011 I
b10011 8
0!
b10011 H
#810000
1!
#820000
0!
#830000
1!
#840000
b10100 I
b10100 9
0!
b10100 H
#850000
1!
#860000
0!
#870000
1!
#880000
b10101 I
b10101 :
0!
b10101 H
#890000
1!
#900000
0!
#910000
1!
#920000
b10110 I
b10110 ;
0!
b10110 H
#930000
1!
#940000
0!
#950000
1!
#960000
b10111 I
b10111 <
0!
b10111 H
#970000
1!
#980000
0!
#990000
1!
#1000000
b11000 I
b11000 =
0!
b11000 H
#1010000
1!
#1020000
0!
#1030000
1!
#1040000
b11001 I
b11001 >
0!
b11001 H
#1050000
1!
#1060000
0!
#1070000
1!
#1080000
b11010 I
b11010 ?
0!
b11010 H
#1090000
1!
#1100000
0!
#1110000
1!
#1120000
b11011 I
b11011 @
0!
b11011 H
#1130000
1!
#1140000
0!
#1150000
1!
#1160000
b11100 I
b11100 A
0!
b11100 H
#1170000
1!
#1180000
0!
#1190000
1!
#1200000
b11101 I
0!
b11101 B
b11101 H
#1210000
1!
#1220000
0!
#1230000
1!
#1240000
b11110 I
0!
b11110 C
b11110 H
#1250000
1!
#1260000
0!
#1270000
1!
#1280000
0!
b11111 $
0G
#1290000
1!
#1300000
b1 E
b11110 #
0!
b11110 $
b1 F
#1310000
1!
#1320000
b10 E
b11101 #
0!
b11101 $
b10 F
#1330000
1!
#1340000
b11 E
b11100 #
0!
b11100 $
b11 F
#1350000
1!
#1360000
b100 E
b11011 #
0!
b11011 $
b100 F
#1370000
1!
#1380000
b101 E
b11010 #
0!
b11010 $
b101 F
#1390000
1!
#1400000
b110 E
b11001 #
0!
b11001 $
b110 F
#1410000
1!
#1420000
b111 E
b11000 #
0!
b11000 $
b111 F
#1430000
1!
#1440000
b1000 E
b10111 #
0!
b10111 $
b1000 F
#1450000
1!
#1460000
b1001 E
b10110 #
0!
b10110 $
b1001 F
#1470000
1!
#1480000
b1010 E
b10101 #
0!
b10101 $
b1010 F
#1490000
1!
#1500000
b1011 E
b10100 #
0!
b10100 $
b1011 F
#1510000
1!
#1520000
b1100 E
b10011 #
0!
b10011 $
b1100 F
#1530000
1!
#1540000
b1101 E
b10010 #
0!
b10010 $
b1101 F
#1550000
1!
#1560000
b1110 E
b10001 #
0!
b10001 $
b1110 F
#1570000
1!
#1580000
b1111 E
b10000 #
0!
b10000 $
b1111 F
#1590000
1!
#1600000
b10000 E
b1111 #
0!
b1111 $
b10000 F
#1610000
1!
#1620000
b10001 E
b1110 #
0!
b1110 $
b10001 F
#1630000
1!
#1640000
b10010 E
b1101 #
0!
b1101 $
b10010 F
#1650000
1!
#1660000
b10011 E
b1100 #
0!
b1100 $
b10011 F
#1670000
1!
#1680000
b10100 E
b1011 #
0!
b1011 $
b10100 F
#1690000
1!
#1700000
b10101 E
b1010 #
0!
b1010 $
b10101 F
#1710000
1!
#1720000
b10110 E
b1001 #
0!
b1001 $
b10110 F
#1730000
1!
#1740000
b10111 E
b1000 #
0!
b1000 $
b10111 F
#1750000
1!
#1760000
b11000 E
b111 #
0!
b111 $
b11000 F
#1770000
1!
#1780000
b11001 E
b110 #
0!
b110 $
b11001 F
#1790000
1!
#1800000
b11010 E
b101 #
0!
b101 $
b11010 F
#1810000
1!
#1820000
b11011 E
b100 #
0!
b100 $
b11011 F
#1830000
1!
#1840000
b11100 E
b11 #
0!
b11 $
b11100 F
#1850000
1!
#1860000
b11101 E
b10 #
0!
b10 $
b11101 F
#1870000
1!
#1880000
b11110 E
b1 #
0!
b1 $
b11110 F
#1890000
1!
#1900000
b0 =
b0 5
b0 -
b0 >
0!
b0 6
1J
b0 .
b0 &
b0 ?
b0 7
b0 /
b0 '
b0 @
b0 8
b0 0
b0 (
b0 A
b0 9
b0 1
b0 )
b0 B
b0 :
b0 E
b0 2
b0 *
b0 C
b0 ;
b0 3
b0 +
b0 <
b0 #
b0 4
b0 ,
