Mips/processor.vcd
$comment Generated by Amaranth $end
$date 2022-04-18 21:01:36.763215 $end
$timescale 1 ps $end
$scope module bench $end
$scope module top $end
$var wire 1 ! pos_clk $end
$var wire 1 " pos_rst $end
$var wire 32 # PC $end
$var wire 1 $ Reset $end
$var wire 32 % PC_next $end
$var wire 32 & PC_4 $end
$var wire 1 ' PCSrc $end
$var wire 32 ( MEM_PC_Branch $end
$var wire 32 ) I_Addr $end
$var wire 1 * I_RdStb $end
$var wire 1 + I_WrStb $end
$var wire 32 , I_DataOut $end
$var wire 32 - ID_instruction $end
$var wire 32 . ID_PC_4 $end
$var wire 32 / I_DataIn $end
$var wire 32 0 ID_sign_ext $end
$var wire 1 1 ID_RegDst $end
$var wire 1 2 ID_ALUSrc $end
$var wire 1 3 ID_Memto_Reg $end
$var wire 1 4 ID_Reg_Write $end
$var wire 1 5 ID_Mem_Read $end
$var wire 1 6 ID_Mem_Write $end
$var wire 1 7 ID_Branch $end
$var wire 3 8 ID_ALUOP $end
$var wire 32 9 EX_RegA $end
$var wire 32 : EX_RegB $end
$var wire 5 ; EX_RegD_LW $end
$var wire 5 < EX_RegD_TR $end
$var wire 32 = EX_PC_4 $end
$var wire 32 > EX_immediate $end
$var wire 1 ? EX_Ctrl_RegDst $end
$var wire 1 @ EX_Ctrl_ALUSrc $end
$var wire 1 A EX_Ctrl_Memto_Reg $end
$var wire 1 B EX_Ctrl_Reg_Write $end
$var wire 1 C EX_Ctrl_Mem_Read $end
$var wire 1 D EX_Ctrl_Mem_Write $end
$var wire 1 E EX_Ctrl_Branch $end
$var wire 3 F EX_Ctrl_ALUOP $end
$var wire 32 G ID_data1_rd $end
$var wire 32 H ID_data2_rd $end
$var wire 32 I ALU_in $end
$var wire 3 J ALU_Control $end
$var wire 32 K aux $end
$var wire 32 L AddResultI $end
$var wire 5 M EX_MuxReg $end
$var wire 5 N MEM_RegDst $end
$var wire 1 O MEM_Ctrl_Memto_Reg $end
$var wire 1 P MEM_Ctrl_Reg_Write $end
$var wire 1 Q MEM_Ctrl_Mem_Read $end
$var wire 1 R MEM_Ctrl_Mem_Write $end
$var wire 1 S MEM_Ctrl_Branch $end
$var wire 32 T MEM_RegB $end
$var wire 32 U MEM_ALU_Result $end
$var wire 1 V MEM_ALU_Zero $end
$var wire 1 W ALU_zero $end
$var wire 32 X ALU_result $end
$var wire 32 Y D_Addr $end
$var wire 1 Z D_RdStb $end
$var wire 1 [ D_Wrstb $end
$var wire 32 \ D_DataOut $end
$var wire 32 ] D_DataALUIn $end
$var wire 32 ^ D_DataIn $end
$var wire 1 _ WB_Ctrl_Memto_Reg $end
$var wire 5 ` WB_RegDst $end
$var wire 1 a WB_Reg_Write $end
$var wire 32 b WB_ALU_Result $end
$var wire 32 c WB_Read_Data $end
$var wire 32 d WB_data_wr $end
$scope module U$0 $end
$var wire 1 ! pos_clk $end
$var wire 1 " pos_rst $end
$var wire 32 Y D_Addr $end
$var wire 1 Z D_RdStb $end
$var wire 1 [ D_Wrstb $end
$var wire 32 \ D_DataOut $end
$var wire 32 ^ D_DataIn $end
$var wire 32 e $signal $end
$var wire 32 f $signal$1 $end
$var wire 32 g $signal$2 $end
$var wire 32 h $signal$3 $end
$var wire 32 i $signal$4 $end
$var wire 32 j $signal$5 $end
$var wire 32 k $signal$6 $end
$var wire 32 l $signal$7 $end
$var wire 32 m $signal$8 $end
$var wire 32 n $signal$9 $end
$var wire 32 o $signal$10 $end
$var wire 32 p $signal$11 $end
$var wire 32 q $signal$12 $end
$var wire 32 r $signal$13 $end
$var wire 32 s $signal$14 $end
$var wire 32 t $signal$15 $end
$var wire 32 u $signal$16 $end
$var wire 32 v $signal$17 $end
$var wire 32 w $signal$18 $end
$var wire 32 x $signal$19 $end
$var wire 32 y $signal$20 $end
$var wire 32 z $signal$21 $end
$var wire 32 { $signal$22 $end
$var wire 32 | $signal$23 $end
$var wire 32 } $signal$24 $end
$var wire 32 ~ $signal$25 $end
$var wire 32 !! $signal$26 $end
$var wire 32 "! $signal$27 $end
$var wire 32 #! $signal$28 $end
$var wire 32 $! $signal$29 $end
$var wire 32 %! $signal$30 $end
$var wire 32 &! $signal$31 $end
$var wire 32 '! $signal$32 $end
$var wire 32 (! $signal$33 $end
$var wire 32 )! $signal$34 $end
$var wire 32 *! $signal$35 $end
$var wire 32 +! $signal$36 $end
$var wire 32 ,! $signal$37 $end
$var wire 32 -! $signal$38 $end
$var wire 32 .! $signal$39 $end
$var wire 32 /! $signal$40 $end
$var wire 32 0! $signal$41 $end
$var wire 32 1! $signal$42 $end
$var wire 32 2! $signal$43 $end
$var wire 32 3! $signal$44 $end
$var wire 32 4! $signal$45 $end
$var wire 32 5! $signal$46 $end
$var wire 32 6! $signal$47 $end
$var wire 32 7! $signal$48 $end
$var wire 32 8! $signal$49 $end
$var wire 32 9! $signal$50 $end
$var wire 32 :! $signal$51 $end
$var wire 32 ;! $signal$52 $end
$var wire 32 <! $signal$53 $end
$var wire 32 =! $signal$54 $end
$var wire 32 >! $signal$55 $end
$var wire 32 ?! $signal$56 $end
$var wire 32 @! $signal$57 $end
$var wire 32 A! $signal$58 $end
$var wire 32 B! $signal$59 $end
$var wire 32 C! $signal$60 $end
$var wire 32 D! $signal$61 $end
$var wire 32 E! $signal$62 $end
$var wire 32 F! $signal$63 $end
$var wire 32 G! $signal$64 $end
$var wire 32 H! $signal$65 $end
$var wire 32 I! $signal$66 $end
$var wire 32 J! $signal$67 $end
$var wire 32 K! $signal$68 $end
$var wire 32 L! $signal$69 $end
$var wire 32 M! $signal$70 $end
$var wire 32 N! $signal$71 $end
$var wire 32 O! $signal$72 $end
$var wire 32 P! $signal$73 $end
$var wire 32 Q! $signal$74 $end
$var wire 32 R! $signal$75 $end
$var wire 32 S! $signal$76 $end
$var wire 32 T! $signal$77 $end
$var wire 32 U! $signal$78 $end
$var wire 32 V! $signal$79 $end
$var wire 32 W! $signal$80 $end
$var wire 32 X! $signal$81 $end
$var wire 32 Y! $signal$82 $end
$var wire 32 Z! $signal$83 $end
$var wire 32 [! $signal$84 $end
$var wire 32 \! $signal$85 $end
$var wire 32 ]! $signal$86 $end
$var wire 32 ^! $signal$87 $end
$var wire 32 _! $signal$88 $end
$var wire 32 `! $signal$89 $end
$var wire 32 a! $signal$90 $end
$var wire 32 b! $signal$91 $end
$var wire 32 c! $signal$92 $end
$var wire 32 d! $signal$93 $end
$var wire 32 e! $signal$94 $end
$var wire 32 f! $signal$95 $end
$var wire 32 g! $signal$96 $end
$var wire 32 h! $signal$97 $end
$var wire 32 i! $signal$98 $end
$var wire 32 j! $signal$99 $end
$var wire 32 k! $signal$100 $end
$var wire 32 l! $signal$101 $end
$var wire 32 m! $signal$102 $end
$var wire 32 n! $signal$103 $end
$var wire 32 o! $signal$104 $end
$var wire 32 p! $signal$105 $end
$var wire 32 q! $signal$106 $end
$var wire 32 r! $signal$107 $end
$var wire 32 s! $signal$108 $end
$var wire 32 t! $signal$109 $end
$var wire 32 u! $signal$110 $end
$var wire 32 v! $signal$111 $end
$var wire 32 w! $signal$112 $end
$var wire 32 x! $signal$113 $end
$var wire 32 y! $signal$114 $end
$var wire 32 z! $signal$115 $end
$var wire 32 {! $signal$116 $end
$var wire 32 |! $signal$117 $end
$var wire 32 }! $signal$118 $end
$var wire 32 ~! $signal$119 $end
$var wire 32 !" $signal$120 $end
$var wire 32 "" $signal$121 $end
$var wire 32 #" $signal$122 $end
$var wire 32 $" $signal$123 $end
$var wire 32 %" $signal$124 $end
$var wire 32 &" $signal$125 $end
$var wire 32 '" $signal$126 $end
$var wire 32 (" $signal$127 $end
$var wire 32 )" $signal$128 $end
$var wire 32 *" $signal$129 $end
$var wire 32 +" $signal$130 $end
$var wire 32 ," $signal$131 $end
$upscope $end
$scope module U$1 $end
$var wire 1 ! pos_clk $end
$var wire 1 " pos_rst $end
$var wire 32 ) I_Addr $end
$var wire 1 * I_RdStb $end
$var wire 1 + I_WrStb $end
$var wire 32 , I_DataOut $end
$var wire 32 / I_DataIn $end
$var wire 32 -" $signal $end
$var wire 32 ." $signal$1 $end
$var wire 32 /" $signal$2 $end
$var wire 32 0" $signal$3 $end
$var wire 32 1" $signal$4 $end
$var wire 32 2" $signal$5 $end
$var wire 32 3" $signal$6 $end
$var wire 32 4" $signal$7 $end
$var wire 32 5" $signal$8 $end
$var wire 32 6" $signal$9 $end
$var wire 32 7" $signal$10 $end
$var wire 32 8" $signal$11 $end
$var wire 32 9" $signal$12 $end
$var wire 32 :" $signal$13 $end
$var wire 32 ;" $signal$14 $end
$var wire 32 <" $signal$15 $end
$var wire 32 =" $signal$16 $end
$var wire 32 >" $signal$17 $end
$var wire 32 ?" $signal$18 $end
$var wire 32 @" $signal$19 $end
$var wire 32 A" $signal$20 $end
$var wire 32 B" $signal$21 $end
$var wire 32 C" $signal$22 $end
$var wire 32 D" $signal$23 $end
$var wire 32 E" $signal$24 $end
$var wire 32 F" $signal$25 $end
$var wire 32 G" $signal$26 $end
$var wire 32 H" $signal$27 $end
$var wire 32 I" $signal$28 $end
$var wire 32 J" $signal$29 $end
$var wire 32 K" $signal$30 $end
$var wire 32 L" $signal$31 $end
$var wire 32 M" $signal$32 $end
$var wire 32 N" $signal$33 $end
$var wire 32 O" $signal$34 $end
$var wire 32 P" $signal$35 $end
$var wire 32 Q" $signal$36 $end
$var wire 32 R" $signal$37 $end
$var wire 32 S" $signal$38 $end
$var wire 32 T" $signal$39 $end
$var wire 32 U" $signal$40 $end
$var wire 32 V" $signal$41 $end
$var wire 32 W" $signal$42 $end
$var wire 32 X" $signal$43 $end
$var wire 32 Y" $signal$44 $end
$var wire 32 Z" $signal$45 $end
$var wire 32 [" $signal$46 $end
$var wire 32 \" $signal$47 $end
$var wire 32 ]" $signal$48 $end
$var wire 32 ^" $signal$49 $end
$var wire 32 _" $signal$50 $end
$var wire 32 `" $signal$51 $end
$var wire 32 a" $signal$52 $end
$var wire 32 b" $signal$53 $end
$var wire 32 c" $signal$54 $end
$var wire 32 d" $signal$55 $end
$var wire 32 e" $signal$56 $end
$var wire 32 f" $signal$57 $end
$var wire 32 g" $signal$58 $end
$var wire 32 h" $signal$59 $end
$var wire 32 i" $signal$60 $end
$var wire 32 j" $signal$61 $end
$var wire 32 k" $signal$62 $end
$var wire 32 l" $signal$63 $end
$var wire 32 m" $signal$64 $end
$var wire 32 n" $signal$65 $end
$var wire 32 o" $signal$66 $end
$var wire 32 p" $signal$67 $end
$var wire 32 q" $signal$68 $end
$var wire 32 r" $signal$69 $end
$var wire 32 s" $signal$70 $end
$var wire 32 t" $signal$71 $end
$var wire 32 u" $signal$72 $end
$var wire 32 v" $signal$73 $end
$var wire 32 w" $signal$74 $end
$var wire 32 x" $signal$75 $end
$var wire 32 y" $signal$76 $end
$var wire 32 z" $signal$77 $end
$var wire 32 {" $signal$78 $end
$var wire 32 |" $signal$79 $end
$var wire 32 }" $signal$80 $end
$var wire 32 ~" $signal$81 $end
$var wire 32 !# $signal$82 $end
$var wire 32 "# $signal$83 $end
$var wire 32 ## $signal$84 $end
$var wire 32 $# $signal$85 $end
$var wire 32 %# $signal$86 $end
$var wire 32 &# $signal$87 $end
$var wire 32 '# $signal$88 $end
$var wire 32 (# $signal$89 $end
$var wire 32 )# $signal$90 $end
$var wire 32 *# $signal$91 $end
$var wire 32 +# $signal$92 $end
$var wire 32 ,# $signal$93 $end
$var wire 32 -# $signal$94 $end
$var wire 32 .# $signal$95 $end
$var wire 32 /# $signal$96 $end
$var wire 32 0# $signal$97 $end
$var wire 32 1# $signal$98 $end
$var wire 32 2# $signal$99 $end
$var wire 32 3# $signal$100 $end
$var wire 32 4# $signal$101 $end
$var wire 32 5# $signal$102 $end
$var wire 32 6# $signal$103 $end
$var wire 32 7# $signal$104 $end
$var wire 32 8# $signal$105 $end
$var wire 32 9# $signal$106 $end
$var wire 32 :# $signal$107 $end
$var wire 32 ;# $signal$108 $end
$var wire 32 <# $signal$109 $end
$var wire 32 =# $signal$110 $end
$var wire 32 ># $signal$111 $end
$var wire 32 ?# $signal$112 $end
$var wire 32 @# $signal$113 $end
$var wire 32 A# $signal$114 $end
$var wire 32 B# $signal$115 $end
$var wire 32 C# $signal$116 $end
$var wire 32 D# $signal$117 $end
$var wire 32 E# $signal$118 $end
$var wire 32 F# $signal$119 $end
$var wire 32 G# $signal$120 $end
$var wire 32 H# $signal$121 $end
$var wire 32 I# $signal$122 $end
$var wire 32 J# $signal$123 $end
$var wire 32 K# $signal$124 $end
$var wire 32 L# $signal$125 $end
$var wire 32 M# $signal$126 $end
$var wire 32 N# $signal$127 $end
$var wire 32 O# $signal$128 $end
$var wire 32 P# $signal$129 $end
$var wire 32 Q# $signal$130 $end
$var wire 32 R# $signal$131 $end
$upscope $end
$scope module U$2 $end
$var wire 32 9 EX_RegA $end
$var wire 32 I ALU_in $end
$var wire 3 J ALU_Control $end
$var wire 1 W ALU_zero $end
$var wire 32 X ALU_result $end
$upscope $end
$scope module U$3 $end
$var wire 1 ! pos_clk $end
$var wire 1 " pos_rst $end
$var wire 1 $ Reset $end
$var wire 32 - ID_instruction $end
$var wire 32 G ID_data1_rd $end
$var wire 32 H ID_data2_rd $end
$var wire 5 ` WB_RegDst $end
$var wire 1 a WB_Reg_Write $end
$var wire 32 d WB_data_wr $end
$var wire 32 S# $signal $end
$var wire 32 T# $signal$1 $end
$var wire 32 U# $signal$2 $end
$var wire 32 V# $signal$3 $end
$var wire 32 W# $signal$4 $end
$var wire 32 X# $signal$5 $end
$var wire 32 Y# $signal$6 $end
$var wire 32 Z# $signal$7 $end
$var wire 32 [# $signal$8 $end
$var wire 32 \# $signal$9 $end
$var wire 32 ]# $signal$10 $end
$var wire 32 ^# $signal$11 $end
$var wire 32 _# $signal$12 $end
$var wire 32 `# $signal$13 $end
$var wire 32 a# $signal$14 $end
$var wire 32 b# $signal$15 $end
$var wire 32 c# $signal$16 $end
$var wire 32 d# $signal$17 $end
$var wire 32 e# $signal$18 $end
$var wire 32 f# $signal$19 $end
$var wire 32 g# $signal$20 $end
$var wire 32 h# $signal$21 $end
$var wire 32 i# $signal$22 $end
$var wire 32 j# $signal$23 $end
$var wire 32 k# $signal$24 $end
$var wire 32 l# $signal$25 $end
$var wire 32 m# $signal$26 $end
$var wire 32 n# $signal$27 $end
$var wire 32 o# $signal$28 $end
$var wire 32 p# $signal$29 $end
$var wire 32 q# $signal$30 $end
$var wire 32 r# $signal$31 $end
$upscope $end
$upscope $end
$upscope $end
$enddefinitions $end
#0
$dumpvars
0!
0"
b0 #
1$
b100 %
b100 &
0'
b0 (
b0 )
1*
0+
b0 ,
b0 -
b0 .
b0 /
b0 0
11
02
03
14
05
06
07
b10 8
b0 9
b0 :
b0 ;
b0 <
b0 =
b0 >
0?
0@
0A
0B
0C
0D
0E
b0 F
b0 G
b0 H
b0 I
b10 J
b0 K
b0 L
b0 M
b0 N
0O
0P
0Q
0R
0S
b0 T
b0 U
0V
1W
b0 X
b0 Y
0Z
0[
b0 \
b0 ]
b0 ^
0_
b0 `
0a
b0 b
b0 c
b0 d
b1 e
b0 f
b0 g
b0 h
b10 i
b0 j
b0 k
b0 l
b100 m
b0 n
b0 o
b0 p
b1000 q
b0 r
b0 s
b0 t
b10000 u
b0 v
b0 w
b0 x
b100000 y
b0 z
b0 {
b0 |
b0 }
b0 ~
b0 !!
b0 "!
b0 #!
b0 $!
b0 %!
b0 &!
b0 '!
b0 (!
b0 )!
b0 *!
b0 +!
b0 ,!
b0 -!
b0 .!
b0 /!
b0 0!
b0 1!
b0 2!
b0 3!
b0 4!
b0 5!
b0 6!
b0 7!
b0 8!
b0 9!
b0 :!
b0 ;!
b0 <!
b0 =!
b0 >!
b0 ?!
b0 @!
b0 A!
b0 B!
b0 C!
b0 D!
b0 E!
b0 F!
b0 G!
b0 H!
b0 I!
b0 J!
b0 K!
b0 L!
b0 M!
b0 N!
b0 O!
b0 P!
b0 Q!
b0 R!
b0 S!
b0 T!
b0 U!
b0 V!
b0 W!
b0 X!
b0 Y!
b0 Z!
b0 [!
b0 \!
b0 ]!
b0 ^!
b0 _!
b0 `!
b0 a!
b0 b!
b0 c!
b0 d!
b0 e!
b0 f!
b0 g!
b0 h!
b0 i!
b0 j!
b0 k!
b0 l!
b0 m!
b0 n!
b0 o!
b0 p!
b0 q!
b0 r!
b0 s!
b0 t!
b0 u!
b0 v!
b0 w!
b0 x!
b0 y!
b0 z!
b0 {!
b0 |!
b0 }!
b0 ~!
b0 !"
b0 ""
b0 #"
b0 $"
b0 %"
b0 &"
b0 '"
b0 ("
b0 )"
b0 *"
b0 +"
b0 ,"
b10001100000010010000000000000000 -"
b0 ."
b0 /"
b0 0"
b10001100000010100000000000000100 1"
b0 2"
b0 3"
b0 4"
b10001100000010110000000000001000 5"
b0 6"
b0 7"
b0 8"
b10001100000011000000000000001100 9"
b0 :"
b0 ;"
b0 <"
b10001100000011010000000000010000 ="
b0 >"
b0 ?"
b0 @"
b10001100000011100000000000010100 A"
b0 B"
b0 C"
b0 D"
b10101100000010010000000000011000 E"
b0 F"
b0 G"
b0 H"
b10101100000010100000000000011100 I"
b0 J"
b0 K"
b0 L"
b10101100000010110000000000100000 M"
b0 N"
b0 O"
b0 P"
b10101100000011000000000000100100 Q"
b0 R"
b0 S"
b0 T"
b10101100000011010000000000101000 U"
b0 V"
b0 W"
b0 X"
b10101100000011100000000000101100 Y"
b0 Z"
b0 ["
b0 \"
b10001100000010010000000000011000 ]"
b0 ^"
b0 _"
b0 `"
b10001100000010100000000000011100 a"
b0 b"
b0 c"
b0 d"
b10001100000010110000000000100000 e"
b0 f"
b0 g"
b0 h"
b10001100000011000000000000100100 i"
b0 j"
b0 k"
b0 l"
b10001100000011010000000000101000 m"
b0 n"
b0 o"
b0 p"
b10001100000011100000000000101100 q"
b0 r"
b0 s"
b0 t"
b1001010100111100000100000 u"
b0 v"
b0 w"
b0 x"
b1011011001000000000100000 y"
b0 z"
b0 {"
b0 |"
b1101010011000100000100010 }"
b0 ~"
b0 !#
b0 "#
b1110010101001000000100010 ##
b0 $#
b0 %#
b0 &#
b1001010101001100000100100 '#
b0 (#
b0 )#
b0 *#
b1111010101010000000100100 +#
b0 ,#
b0 -#
b0 .#
b1001010101010100000100101 /#
b0 0#
b0 1#
b0 2#
b10000010101011000000100101 3#
b0 4#
b0 5#
b0 6#
b1001010101011100000101010 7#
b0 8#
b0 9#
b0 :#
b10000010101100000000101010 ;#
b0 <#
b0 =#
b0 >#
b111100000010010000000000000001 ?#
b0 @#
b0 A#
b0 B#
b111100000010100000000000000010 C#
b0 D#
b0 E#
b0 F#
b100001011010110000000000000110 G#
b0 H#
b0 I#
b0 J#
b110101100011000000000001110000 K#
b0 L#
b0 M#
b0 N#
b110001111011110000000000000010 O#
b0 P#
b0 Q#
b0 R#
b0 S#
b0 T#
b0 U#
b0 V#
b0 W#
b0 X#
b0 Y#
b0 Z#
b0 [#
b0 \#
b0 ]#
b0 ^#
b0 _#
b0 `#
b0 a#
b0 b#
b0 c#
b0 d#
b0 e#
b0 f#
b0 g#
b0 h#
b0 i#
b0 j#
b0 k#
b0 l#
b0 m#
b0 n#
b0 o#
b0 p#
b0 q#
b0 r#
$end
#25000
1!
#50000
b10001100000010010000000000000000 /
0!
#75000
1!
#100000
0!
#125000
1!
#150000
0!
#169999
0$
#175000
01
b0 8
12
b100 )
b1000 &
b10001100000010010000000000000000 -
1!
1V
1B
13
1?
b1000 %
b10 F
15
b0 J
b100 .
b100 #
#200000
b10001100000010100000000000000100 /
0!
#225000
1A
1!
0?
b1100 %
b1001 M
b10 J
1@
b100 L
b1001 ;
b1000 #
1C
b1000 )
b1100 &
b10001100000010100000000000000100 -
1P
b0 F
b1000 .
b100 0
b100 =
#250000
b10001100000010110000000000001000 /
0!
#275000
1a
1Z
1!
b10000 %
b1010 M
1Q
b1010 ;
b11000 L
b1001 N
b1100 #
0W
1O
b100 X
b1100 )
b10000 &
b10001100000010110000000000001000 -
b10000 K
b100 >
b1100 .
b100 I
b1000 0
b1000 =
b100 (
#300000
b1 ]
b1 ^
b10001100000011000000000000001100 /
0!
#325000
1!
b10100 %
b1 d
b1011 M
b1011 ;
b101100 L
b1 c
b1010 N
b10000 #
b100 U
b11000 (
b1000 X
b10000 )
b10100 &
b10001100000011000000000000001100 -
0V
b100 Y
b100000 K
b1000 >
1_
b10000 .
b1000 I
b1100 0
b1100 =
b1001 `
#350000
b10 ^
b10001100000011010000000000010000 /
b10 ]
0!
b1 \#
#375000
1!
b100 b
b11000 %
b10 d
b1100 M
b1100 ;
b1000000 L
b10 c
b1011 N
b10100 #
b1000 U
b101100 (
b1100 X
b10100 )
b11000 &
b10001100000011010000000000010000 -
b1000 Y
b110000 K
b1100 >
b10100 .
b1100 I
b10000 0
b10000 =
b1010 `
#400000
b100 ^
b10001100000011100000000000010100 /
b100 ]
0!
b10 ]#
#425000
1!
b1000 b
b11100 %
b100 d
b1101 M
b1101 ;
b1010100 L
b100 c
b1100 N
b11000 #
b1100 U
b1000000 (
b10000 X
b11000 )
b11100 &
b10001100000011100000000000010100 -
b1100 Y
b1000000 K
b10000 >
b11000 .
b10000 I
b10100 0
b10100 =
b1011 `
#450000
b1000 ^
b10101100000010010000000000011000 /
b1000 ]
b100 ^#
0!
#475000
1!
03
04
b1100 b
b100000 %
05
b1110 M
b1000 d
16
b1110 ;
b1101000 L
b1000 c
b1101 N
b11100 #
b10000 U
b1010100 (
b10100 X
b11100 )
b100000 &
b10101100000010010000000000011000 -
b10000 Y
b1010000 K
b10100 >
b1 H
b11100 .
b10100 I
b11000 0
b11000 =
b1100 `
#500000
b10000 ^
b10101100000010100000000000011100 /
b10000 ]
b1000 _#
0!
#525000
0A
b100000 .
1!
0B
b10000 b
b100100 %
b10000 d
b1001 M
b1001 ;
1D
b10000 c
b1110 N
b100000 #
b1111100 L
b10100 U
b1 :
0C
b100000 )
b100100 &
b10101100000010100000000000011100 -
b11000 X
b10100 Y
b1100000 K
b11000 >
b10 H
b1101 `
b11000 I
b11100 0
b11100 =
b1101000 (
#550000
b100000 ^
b10000 `#
b10101100000010110000000000100000 /
b100000 ]
0!
#575000
1R
b100100 .
1[
0Z
1!
b1 \
b10100 b
b101000 %
b100000 d
b1010 M
b1 T
0Q
b1010 ;
b10010000 L
b100000 c
b1001 N
b100100 #
b11000 U
b10 :
0O
b100100 )
b101000 &
b10101100000010110000000000100000 -
b11100 X
b11000 Y
0P
b1110000 K
b11100 >
b100 H
b1110 `
b11100 I
b100000 0
b100000 =
b1111100 (
#600000
b100000 a#
b1 }
0!
b10101100000011000000000000100100 /
#625000
b101000 .
0a
1!
b10 \
b11000 b
b101100 %
b11000 d
b1011 M
b10 T
b1011 ;
b10100100 L
b1010 N
b101000 #
b11100 U
b100 :
b100000 X
b101000 )
b101100 &
b10101100000011000000000000100100 -
b11100 Y
b10000000 K
b100000 >
0_
b1000 H
b1001 `
b100000 I
b100100 0
b100100 =
b10010000 (
#650000
b10101100000011010000000000101000 /
0!
b10 #!
#675000
1!
b100 \
b11100 b
b110000 %
b11100 d
b1100 M
b100 T
b1100 ;
b10111000 L
b1011 N
b101100 #
b100000 U
b1000 :
b10100100 (
b101100 )
b110000 &
b10101100000011010000000000101000 -
b100100 X
b100000 Y
b10010000 K
b100100 >
b10000 H
b101100 .
b100100 I
b101000 0
b101000 =
b1010 `
#700000
b10101100000011100000000000101100 /
0!
b100 '!
#725000
1!
b1000 \
b100000 b
b110100 %
b100000 d
b1101 M
b1000 T
b1101 ;
b11001100 L
b1100 N
b110000 #
b100100 U
b10000 :
b10111000 (
b110000 )
b110100 &
b10101100000011100000000000101100 -
b101000 X
b100100 Y
b10100000 K
b101000 >
b100000 H
b110000 .
b101000 I
b101100 0
b101100 =
b1011 `
#750000
b10001100000010010000000000011000 /
0!
b1000 +!
#775000
1!
13
14
b10000 \
b100100 b
b111000 %
15
b1110 M
b10000 T
b100100 d
06
b1110 ;
b11100000 L
b1101 N
b110100 #
b101000 U
b100000 :
b11001100 (
b110100 )
b111000 &
b10001100000010010000000000011000 -
b101100 X
b101000 Y
b10110000 K
b101100 >
b1 H
b110100 .
b101100 I
b11000 0
b110000 =
b1100 `
#800000
b10000 /!
b10001100000010100000000000011100 /
0!
#825000
1A
b111000 .
1!
1B
b100000 \
b101000 b
b111100 %
b101000 d
b1001 M
b100000 T
b1001 ;
0D
b10010100 L
b1110 N
b111000 #
b101100 U
b1 :
1C
b111000 )
b111100 &
b10001100000010100000000000011100 -
b11000 X
b101100 Y
b1100000 K
b11000 >
b10 H
b1101 `
b11000 I
b11100 0
b110100 =
b11100000 (
#850000
b10001100000010110000000000100000 /
0!
b100000 3!
#875000
0R
b111100 .
0[
1Z
1!
b1 \
b101100 b
b1000000 %
b101100 d
b1010 M
b1 T
1Q
b1010 ;
b10101000 L
b1001 N
b111100 #
b11000 U
b10 :
1O
b111100 )
b1000000 &
b10001100000010110000000000100000 -
b11100 X
b11000 Y
1P
b1110000 K
b11100 >
b100 H
b1110 `
b11100 I
b100000 0
b111000 =
b10010100 (
#900000
b1 ]
b1 ^
b10001100000011000000000000100100 /
0!
#925000
b1000000 .
1a
1!
b10 \
b11000 b
b1000100 %
b1 d
b1011 M
b10 T
b1011 ;
b10111100 L
b1 c
b1010 N
b1000000 #
b11100 U
b100 :
b100000 X
b1000000 )
b1000100 &
b10001100000011000000000000100100 -
b11100 Y
b10000000 K
b100000 >
1_
b1000 H
b1001 `
b100000 I
b100100 0
b111100 =
b10101000 (
#950000
b10 ]
b10 ^
b10001100000011010000000000101000 /
0!
#975000
1!
b100 \
b11100 b
b1001000 %
b10 d
b1100 M
b100 T
b1100 ;
b11010000 L
b10 c
b1011 N
b1000100 #
b100000 U
b1000 :
b10111100 (
b1000100 )
b1001000 &
b10001100000011010000000000101000 -
b100100 X
b100000 Y
b10010000 K
b100100 >
b10000 H
b1000100 .
b100100 I
b101000 0
b1000000 =
b1010 `
#1000000
b100 ]
b100 ^
b10001100000011100000000000101100 /
0!
#1025000
1!
b1000 \
b100000 b
b1001100 %
b100 d
b1101 M
b1000 T
b1101 ;
b11100100 L
b100 c
b1100 N
b1001000 #
b100100 U
b10000 :
b11010000 (
b1001000 )
b1001100 &
b10001100000011100000000000101100 -
b101000 X
b100100 Y
b10100000 K
b101000 >
b100000 H
b1001000 .
b101000 I
b101100 0
b1000100 =
b1011 `
#1050000
b1000 ]
b1000 ^
b1001010100111100000100000 /
0!
#1075000
1!
b10000 \
b1000 d
b1110 M
b10000 T
b11111000 L
b1001100 #
b101000 U
b101100 X
b1001100 )
b1001010100111100000100000 -
b1 G
b101100 >
b10 H
b101100 I
b111100000100000 0
b1001000 =
b1100 `
b11100100 (
11
02
03
b100100 b
b1010000 %
05
b1110 ;
b1000 c
b1101 N
b10 8
b100000 :
b1010000 &
b101000 Y
b10110000 K
b1001100 .
#1100000
b10000 ]
b10000 ^
b1011011001000000000100000 /
0!
#1125000
0A
1!
b100000 \
1?
b10000 d
b1111 M
b100000 T
b11110000011001100 L
b1010000 #
b101100 U
b11 X
0C
b1010000 )
b1011011001000000000100000 -
b100 G
b111100000100000 >
b10 F
b1000 H
b10 I
b11111111111111111000000000100000 0
b1001100 =
b1101 `
b11111000 (
b1111 <
b101000 b
b1010100 %
0@
b1010 ;
b10000 c
b1110 N
b10 :
b1010100 &
b101100 Y
b1 9
b11110000010000000 K
b1010000 .
#1150000
b100000 ]
b100000 ^
b1101010011000100000100010 /
0!
#1175000
b1010100 .
0Z
1!
b10 \
b10000 <
b101100 b
b1011000 %
b100000 d
b10000 M
b10 T
0Q
b1100 ;
b11111111111111100000000011010000 L
b100000 c
b1111 N
b1010100 #
b11 U
b1000 :
0O
b1100 X
b1010100 )
b1101010011000100000100010 -
b1011000 &
b11 Y
b100 9
b11111111111111100000000010000000 K
b11111111111111111000000000100000 >
b10000 G
b1 H
b1110 `
b1000 I
b11111111111111111000100000100010 0
b1010000 =
b11110000011001100 (
#1200000
b1110010101001000000100010 /
0!
#1225000
b1011000 .
1!
b1000 \
b10001 <
b11 b
b1011100 %
b11 d
b10001 M
b1000 T
b110 J
b1001 ;
b11111111111111100010000011011100 L
b10000 N
b1011000 #
b1100 U
b1 :
b1111 X
b1011000 )
b1011100 &
b1110010101001000000100010 -
b1100 Y
b10000 9
b11111111111111100010000010001000 K
b11111111111111111000100000100010 >
b100000 G
0_
b10 H
b1111 `
b1 I
b11111111111111111001000000100010 0
b1010100 =
b11111111111111100000000011010000 (
#1250000
b11 b#
0!
b1001010101001100000100100 /
#1275000
b1011100 .
1!
b1 \
b10010 <
b1100 b
b1100000 %
b1100 d
b10010 M
b1 T
b1010 ;
b11111111111111100100000011100000 L
b10001 N
b1011100 #
b1111 U
b10 :
b11110 X
b1011100 )
b1100000 &
b1001010101001100000100100 -
b1111 Y
b100000 9
b11111111111111100100000010001000 K
b11111111111111111001000000100010 >
b1 G
b10000 `
b10 I
b11111111111111111001100000100100 0
b1011000 =
b11111111111111100010000011011100 (
#1300000
b1111010101010000000100100 /
0!
b1100 c#
#1325000
1!
b10 \
b10011 <
b1111 b
b1100100 %
b1111 d
b10011 M
b10 T
b0 J
b11111111111111100110000011101100 L
b10010 N
b1100000 #
1W
b11110 U
b11111111111111100100000011100000 (
b0 X
b1100000 )
b1100100 &
b1111010101010000000100100 -
b11110 Y
b1 9
b11111111111111100110000010010000 K
b11111111111111111001100000100100 >
b11 G
b1100000 .
b11111111111111111010000000100100 0
b1011100 =
b10001 `
#1350000
b1111 d#
0!
b1001010101010100000100101 /
